{
  "images" : [
    {
      "filename" : "IMG_1676.jpg",
      "idiom" : "universal"
    }
  ],
  "info" : {
    "author" : "xcode",
    "version" : 1
  },
  "properties" : {
    "compression-type" : "lossless"
  }
}
